[
    {
        "arguments": [
            "clang++",
            "-c",
            "-std=c++17",
            "-Wall",
            "-Wextra",
            "-pedantic",
            "-I",
            "inc/tile_implementation",
            "-I",
            "inc/tile_implementation/battle_actions",
            "-I",
            "inc/tile_implementation/usage_functions",
            "-I",
            "inc/tile_implementation/passive_bonuses",
            "-I",
            "inc/tile_implementation/innate_functions",
            "-I",
            "inc/player_implementation",
            "-I",
            "inc/player_implementation/player_logic",
            "-I",
            "inc/game_flow",
            "-I",
            "inc/game_flow/game_states",
            "-I",
            "inc/guis",
            "-I",
            "inc/monte_carlo_trees",
            "-I",
            "inc/tests",
            "-I",
            "inc/utils",
            "-I",
            "inc/army_builders",
            "-I",
            "inc",
            "-I",
            "/usr/local/include",
            "-Wno-unused-parameter",
            "-g",
            "-fdiagnostics-color",
            "-O0",
            "-o",
            "obj/player_implementation/player_logic/RandomPlayerLogic.o",
            "src/player_implementation/player_logic/RandomPlayerLogic.cpp"
        ],
        "directory": "/home/brzegorz/Projects/neuro-ai",
        "file": "src/player_implementation/player_logic/RandomPlayerLogic.cpp"
    },
    {
        "arguments": [
            "clang++",
            "-c",
            "-std=c++17",
            "-Wall",
            "-Wextra",
            "-pedantic",
            "-I",
            "inc/tile_implementation",
            "-I",
            "inc/tile_implementation/battle_actions",
            "-I",
            "inc/tile_implementation/usage_functions",
            "-I",
            "inc/tile_implementation/passive_bonuses",
            "-I",
            "inc/tile_implementation/innate_functions",
            "-I",
            "inc/player_implementation",
            "-I",
            "inc/player_implementation/player_logic",
            "-I",
            "inc/game_flow",
            "-I",
            "inc/game_flow/game_states",
            "-I",
            "inc/guis",
            "-I",
            "inc/monte_carlo_trees",
            "-I",
            "inc/tests",
            "-I",
            "inc/utils",
            "-I",
            "inc/army_builders",
            "-I",
            "inc",
            "-I",
            "/usr/local/include",
            "-Wno-unused-parameter",
            "-g",
            "-fdiagnostics-color",
            "-O0",
            "-o",
            "obj/tile_implementation/passive_bonuses/BonusReconCenter.o",
            "src/tile_implementation/passive_bonuses/BonusReconCenter.cpp"
        ],
        "directory": "/home/brzegorz/Projects/neuro-ai",
        "file": "src/tile_implementation/passive_bonuses/BonusReconCenter.cpp"
    },
    {
        "arguments": [
            "clang++",
            "-c",
            "-std=c++17",
            "-Wall",
            "-Wextra",
            "-pedantic",
            "-I",
            "inc/tile_implementation",
            "-I",
            "inc/tile_implementation/battle_actions",
            "-I",
            "inc/tile_implementation/usage_functions",
            "-I",
            "inc/tile_implementation/passive_bonuses",
            "-I",
            "inc/tile_implementation/innate_functions",
            "-I",
            "inc/player_implementation",
            "-I",
            "inc/player_implementation/player_logic",
            "-I",
            "inc/game_flow",
            "-I",
            "inc/game_flow/game_states",
            "-I",
            "inc/guis",
            "-I",
            "inc/monte_carlo_trees",
            "-I",
            "inc/tests",
            "-I",
            "inc/utils",
            "-I",
            "inc/army_builders",
            "-I",
            "inc",
            "-I",
            "/usr/local/include",
            "-Wno-unused-parameter",
            "-g",
            "-fdiagnostics-color",
            "-O0",
            "-o",
            "obj/GameData.o",
            "src/GameData.cpp"
        ],
        "directory": "/home/brzegorz/Projects/neuro-ai",
        "file": "src/GameData.cpp"
    },
    {
        "arguments": [
            "clang++",
            "-c",
            "-std=c++17",
            "-Wall",
            "-Wextra",
            "-pedantic",
            "-I",
            "inc/tile_implementation",
            "-I",
            "inc/tile_implementation/battle_actions",
            "-I",
            "inc/tile_implementation/usage_functions",
            "-I",
            "inc/tile_implementation/passive_bonuses",
            "-I",
            "inc/tile_implementation/innate_functions",
            "-I",
            "inc/player_implementation",
            "-I",
            "inc/player_implementation/player_logic",
            "-I",
            "inc/game_flow",
            "-I",
            "inc/game_flow/game_states",
            "-I",
            "inc/guis",
            "-I",
            "inc/monte_carlo_trees",
            "-I",
            "inc/tests",
            "-I",
            "inc/utils",
            "-I",
            "inc/army_builders",
            "-I",
            "inc",
            "-I",
            "/usr/local/include",
            "-Wno-unused-parameter",
            "-g",
            "-fdiagnostics-color",
            "-O0",
            "-o",
            "obj/tile_implementation/usage_functions/PushBack.o",
            "src/tile_implementation/usage_functions/PushBack.cpp"
        ],
        "directory": "/home/brzegorz/Projects/neuro-ai",
        "file": "src/tile_implementation/usage_functions/PushBack.cpp"
    },
    {
        "arguments": [
            "clang++",
            "-c",
            "-std=c++17",
            "-Wall",
            "-Wextra",
            "-pedantic",
            "-I",
            "inc/tile_implementation",
            "-I",
            "inc/tile_implementation/battle_actions",
            "-I",
            "inc/tile_implementation/usage_functions",
            "-I",
            "inc/tile_implementation/passive_bonuses",
            "-I",
            "inc/tile_implementation/innate_functions",
            "-I",
            "inc/player_implementation",
            "-I",
            "inc/player_implementation/player_logic",
            "-I",
            "inc/game_flow",
            "-I",
            "inc/game_flow/game_states",
            "-I",
            "inc/guis",
            "-I",
            "inc/monte_carlo_trees",
            "-I",
            "inc/tests",
            "-I",
            "inc/utils",
            "-I",
            "inc/army_builders",
            "-I",
            "inc",
            "-I",
            "/usr/local/include",
            "-Wno-unused-parameter",
            "-g",
            "-fdiagnostics-color",
            "-O0",
            "-o",
            "obj/tests/EndgameTest.o",
            "src/tests/EndgameTest.cpp"
        ],
        "directory": "/home/brzegorz/Projects/neuro-ai",
        "file": "src/tests/EndgameTest.cpp"
    },
    {
        "arguments": [
            "clang++",
            "-c",
            "-std=c++17",
            "-Wall",
            "-Wextra",
            "-pedantic",
            "-I",
            "inc/tile_implementation",
            "-I",
            "inc/tile_implementation/battle_actions",
            "-I",
            "inc/tile_implementation/usage_functions",
            "-I",
            "inc/tile_implementation/passive_bonuses",
            "-I",
            "inc/tile_implementation/innate_functions",
            "-I",
            "inc/player_implementation",
            "-I",
            "inc/player_implementation/player_logic",
            "-I",
            "inc/game_flow",
            "-I",
            "inc/game_flow/game_states",
            "-I",
            "inc/guis",
            "-I",
            "inc/monte_carlo_trees",
            "-I",
            "inc/tests",
            "-I",
            "inc/utils",
            "-I",
            "inc/army_builders",
            "-I",
            "inc",
            "-I",
            "/usr/local/include",
            "-Wno-unused-parameter",
            "-g",
            "-fdiagnostics-color",
            "-O0",
            "-o",
            "obj/tile_implementation/passive_bonuses/PassiveBonus.o",
            "src/tile_implementation/passive_bonuses/PassiveBonus.cpp"
        ],
        "directory": "/home/brzegorz/Projects/neuro-ai",
        "file": "src/tile_implementation/passive_bonuses/PassiveBonus.cpp"
    },
    {
        "arguments": [
            "clang++",
            "-c",
            "-std=c++17",
            "-Wall",
            "-Wextra",
            "-pedantic",
            "-I",
            "inc/tile_implementation",
            "-I",
            "inc/tile_implementation/battle_actions",
            "-I",
            "inc/tile_implementation/usage_functions",
            "-I",
            "inc/tile_implementation/passive_bonuses",
            "-I",
            "inc/tile_implementation/innate_functions",
            "-I",
            "inc/player_implementation",
            "-I",
            "inc/player_implementation/player_logic",
            "-I",
            "inc/game_flow",
            "-I",
            "inc/game_flow/game_states",
            "-I",
            "inc/guis",
            "-I",
            "inc/monte_carlo_trees",
            "-I",
            "inc/tests",
            "-I",
            "inc/utils",
            "-I",
            "inc/army_builders",
            "-I",
            "inc",
            "-I",
            "/usr/local/include",
            "-Wno-unused-parameter",
            "-g",
            "-fdiagnostics-color",
            "-O0",
            "-o",
            "obj/GameRecorder.o",
            "src/GameRecorder.cpp"
        ],
        "directory": "/home/brzegorz/Projects/neuro-ai",
        "file": "src/GameRecorder.cpp"
    },
    {
        "arguments": [
            "clang++",
            "-c",
            "-std=c++17",
            "-Wall",
            "-Wextra",
            "-pedantic",
            "-I",
            "inc/tile_implementation",
            "-I",
            "inc/tile_implementation/battle_actions",
            "-I",
            "inc/tile_implementation/usage_functions",
            "-I",
            "inc/tile_implementation/passive_bonuses",
            "-I",
            "inc/tile_implementation/innate_functions",
            "-I",
            "inc/player_implementation",
            "-I",
            "inc/player_implementation/player_logic",
            "-I",
            "inc/game_flow",
            "-I",
            "inc/game_flow/game_states",
            "-I",
            "inc/guis",
            "-I",
            "inc/monte_carlo_trees",
            "-I",
            "inc/tests",
            "-I",
            "inc/utils",
            "-I",
            "inc/army_builders",
            "-I",
            "inc",
            "-I",
            "/usr/local/include",
            "-Wno-unused-parameter",
            "-g",
            "-fdiagnostics-color",
            "-O0",
            "-o",
            "obj/army_builders/TestArmyBuilder.o",
            "src/army_builders/TestArmyBuilder.cpp"
        ],
        "directory": "/home/brzegorz/Projects/neuro-ai",
        "file": "src/army_builders/TestArmyBuilder.cpp"
    },
    {
        "arguments": [
            "clang++",
            "-c",
            "-std=c++17",
            "-Wall",
            "-Wextra",
            "-pedantic",
            "-I",
            "inc/tile_implementation",
            "-I",
            "inc/tile_implementation/battle_actions",
            "-I",
            "inc/tile_implementation/usage_functions",
            "-I",
            "inc/tile_implementation/passive_bonuses",
            "-I",
            "inc/tile_implementation/innate_functions",
            "-I",
            "inc/player_implementation",
            "-I",
            "inc/player_implementation/player_logic",
            "-I",
            "inc/game_flow",
            "-I",
            "inc/game_flow/game_states",
            "-I",
            "inc/guis",
            "-I",
            "inc/monte_carlo_trees",
            "-I",
            "inc/tests",
            "-I",
            "inc/utils",
            "-I",
            "inc/army_builders",
            "-I",
            "inc",
            "-I",
            "/usr/local/include",
            "-Wno-unused-parameter",
            "-g",
            "-fdiagnostics-color",
            "-O0",
            "-o",
            "obj/tile_implementation/usage_functions/Sniper.o",
            "src/tile_implementation/usage_functions/Sniper.cpp"
        ],
        "directory": "/home/brzegorz/Projects/neuro-ai",
        "file": "src/tile_implementation/usage_functions/Sniper.cpp"
    },
    {
        "arguments": [
            "clang++",
            "-c",
            "-std=c++17",
            "-Wall",
            "-Wextra",
            "-pedantic",
            "-I",
            "inc/tile_implementation",
            "-I",
            "inc/tile_implementation/battle_actions",
            "-I",
            "inc/tile_implementation/usage_functions",
            "-I",
            "inc/tile_implementation/passive_bonuses",
            "-I",
            "inc/tile_implementation/innate_functions",
            "-I",
            "inc/player_implementation",
            "-I",
            "inc/player_implementation/player_logic",
            "-I",
            "inc/game_flow",
            "-I",
            "inc/game_flow/game_states",
            "-I",
            "inc/guis",
            "-I",
            "inc/monte_carlo_trees",
            "-I",
            "inc/tests",
            "-I",
            "inc/utils",
            "-I",
            "inc/army_builders",
            "-I",
            "inc",
            "-I",
            "/usr/local/include",
            "-Wno-unused-parameter",
            "-g",
            "-fdiagnostics-color",
            "-O0",
            "-o",
            "obj/tests/Test.o",
            "src/tests/Test.cpp"
        ],
        "directory": "/home/brzegorz/Projects/neuro-ai",
        "file": "src/tests/Test.cpp"
    },
    {
        "arguments": [
            "clang++",
            "-c",
            "-std=c++17",
            "-Wall",
            "-Wextra",
            "-pedantic",
            "-I",
            "inc/tile_implementation",
            "-I",
            "inc/tile_implementation/battle_actions",
            "-I",
            "inc/tile_implementation/usage_functions",
            "-I",
            "inc/tile_implementation/passive_bonuses",
            "-I",
            "inc/tile_implementation/innate_functions",
            "-I",
            "inc/player_implementation",
            "-I",
            "inc/player_implementation/player_logic",
            "-I",
            "inc/game_flow",
            "-I",
            "inc/game_flow/game_states",
            "-I",
            "inc/guis",
            "-I",
            "inc/monte_carlo_trees",
            "-I",
            "inc/tests",
            "-I",
            "inc/utils",
            "-I",
            "inc/army_builders",
            "-I",
            "inc",
            "-I",
            "/usr/local/include",
            "-Wno-unused-parameter",
            "-g",
            "-fdiagnostics-color",
            "-O0",
            "-o",
            "obj/tile_implementation/passive_bonuses/BonusStrengthShoot.o",
            "src/tile_implementation/passive_bonuses/BonusStrengthShoot.cpp"
        ],
        "directory": "/home/brzegorz/Projects/neuro-ai",
        "file": "src/tile_implementation/passive_bonuses/BonusStrengthShoot.cpp"
    },
    {
        "arguments": [
            "clang++",
            "-c",
            "-std=c++17",
            "-Wall",
            "-Wextra",
            "-pedantic",
            "-I",
            "inc/tile_implementation",
            "-I",
            "inc/tile_implementation/battle_actions",
            "-I",
            "inc/tile_implementation/usage_functions",
            "-I",
            "inc/tile_implementation/passive_bonuses",
            "-I",
            "inc/tile_implementation/innate_functions",
            "-I",
            "inc/player_implementation",
            "-I",
            "inc/player_implementation/player_logic",
            "-I",
            "inc/game_flow",
            "-I",
            "inc/game_flow/game_states",
            "-I",
            "inc/guis",
            "-I",
            "inc/monte_carlo_trees",
            "-I",
            "inc/tests",
            "-I",
            "inc/utils",
            "-I",
            "inc/army_builders",
            "-I",
            "inc",
            "-I",
            "/usr/local/include",
            "-Wno-unused-parameter",
            "-g",
            "-fdiagnostics-color",
            "-O0",
            "-o",
            "obj/game_flow/Game.o",
            "src/game_flow/Game.cpp"
        ],
        "directory": "/home/brzegorz/Projects/neuro-ai",
        "file": "src/game_flow/Game.cpp"
    },
    {
        "arguments": [
            "clang++",
            "-c",
            "-std=c++17",
            "-Wall",
            "-Wextra",
            "-pedantic",
            "-I",
            "inc/tile_implementation",
            "-I",
            "inc/tile_implementation/battle_actions",
            "-I",
            "inc/tile_implementation/usage_functions",
            "-I",
            "inc/tile_implementation/passive_bonuses",
            "-I",
            "inc/tile_implementation/innate_functions",
            "-I",
            "inc/player_implementation",
            "-I",
            "inc/player_implementation/player_logic",
            "-I",
            "inc/game_flow",
            "-I",
            "inc/game_flow/game_states",
            "-I",
            "inc/guis",
            "-I",
            "inc/monte_carlo_trees",
            "-I",
            "inc/tests",
            "-I",
            "inc/utils",
            "-I",
            "inc/army_builders",
            "-I",
            "inc",
            "-I",
            "/usr/local/include",
            "-Wno-unused-parameter",
            "-g",
            "-fdiagnostics-color",
            "-O0",
            "-o",
            "obj/player_implementation/player_logic/HumanPlayerLogic.o",
            "src/player_implementation/player_logic/HumanPlayerLogic.cpp"
        ],
        "directory": "/home/brzegorz/Projects/neuro-ai",
        "file": "src/player_implementation/player_logic/HumanPlayerLogic.cpp"
    },
    {
        "arguments": [
            "clang++",
            "-c",
            "-std=c++17",
            "-Wall",
            "-Wextra",
            "-pedantic",
            "-I",
            "inc/tile_implementation",
            "-I",
            "inc/tile_implementation/battle_actions",
            "-I",
            "inc/tile_implementation/usage_functions",
            "-I",
            "inc/tile_implementation/passive_bonuses",
            "-I",
            "inc/tile_implementation/innate_functions",
            "-I",
            "inc/player_implementation",
            "-I",
            "inc/player_implementation/player_logic",
            "-I",
            "inc/game_flow",
            "-I",
            "inc/game_flow/game_states",
            "-I",
            "inc/guis",
            "-I",
            "inc/monte_carlo_trees",
            "-I",
            "inc/tests",
            "-I",
            "inc/utils",
            "-I",
            "inc/army_builders",
            "-I",
            "inc",
            "-I",
            "/usr/local/include",
            "-Wno-unused-parameter",
            "-g",
            "-fdiagnostics-color",
            "-O0",
            "-o",
            "obj/tests/PassiveBonusTest.o",
            "src/tests/PassiveBonusTest.cpp"
        ],
        "directory": "/home/brzegorz/Projects/neuro-ai",
        "file": "src/tests/PassiveBonusTest.cpp"
    },
    {
        "arguments": [
            "clang++",
            "-c",
            "-std=c++17",
            "-Wall",
            "-Wextra",
            "-pedantic",
            "-I",
            "inc/tile_implementation",
            "-I",
            "inc/tile_implementation/battle_actions",
            "-I",
            "inc/tile_implementation/usage_functions",
            "-I",
            "inc/tile_implementation/passive_bonuses",
            "-I",
            "inc/tile_implementation/innate_functions",
            "-I",
            "inc/player_implementation",
            "-I",
            "inc/player_implementation/player_logic",
            "-I",
            "inc/game_flow",
            "-I",
            "inc/game_flow/game_states",
            "-I",
            "inc/guis",
            "-I",
            "inc/monte_carlo_trees",
            "-I",
            "inc/tests",
            "-I",
            "inc/utils",
            "-I",
            "inc/army_builders",
            "-I",
            "inc",
            "-I",
            "/usr/local/include",
            "-Wno-unused-parameter",
            "-g",
            "-fdiagnostics-color",
            "-O0",
            "-o",
            "obj/tile_implementation/battle_actions/Shoot.o",
            "src/tile_implementation/battle_actions/Shoot.cpp"
        ],
        "directory": "/home/brzegorz/Projects/neuro-ai",
        "file": "src/tile_implementation/battle_actions/Shoot.cpp"
    },
    {
        "arguments": [
            "clang++",
            "-c",
            "-std=c++17",
            "-Wall",
            "-Wextra",
            "-pedantic",
            "-I",
            "inc/tile_implementation",
            "-I",
            "inc/tile_implementation/battle_actions",
            "-I",
            "inc/tile_implementation/usage_functions",
            "-I",
            "inc/tile_implementation/passive_bonuses",
            "-I",
            "inc/tile_implementation/innate_functions",
            "-I",
            "inc/player_implementation",
            "-I",
            "inc/player_implementation/player_logic",
            "-I",
            "inc/game_flow",
            "-I",
            "inc/game_flow/game_states",
            "-I",
            "inc/guis",
            "-I",
            "inc/monte_carlo_trees",
            "-I",
            "inc/tests",
            "-I",
            "inc/utils",
            "-I",
            "inc/army_builders",
            "-I",
            "inc",
            "-I",
            "/usr/local/include",
            "-Wno-unused-parameter",
            "-g",
            "-fdiagnostics-color",
            "-O0",
            "-o",
            "obj/guis/TextGui.o",
            "src/guis/TextGui.cpp"
        ],
        "directory": "/home/brzegorz/Projects/neuro-ai",
        "file": "src/guis/TextGui.cpp"
    },
    {
        "arguments": [
            "clang++",
            "-c",
            "-std=c++17",
            "-Wall",
            "-Wextra",
            "-pedantic",
            "-I",
            "inc/tile_implementation",
            "-I",
            "inc/tile_implementation/battle_actions",
            "-I",
            "inc/tile_implementation/usage_functions",
            "-I",
            "inc/tile_implementation/passive_bonuses",
            "-I",
            "inc/tile_implementation/innate_functions",
            "-I",
            "inc/player_implementation",
            "-I",
            "inc/player_implementation/player_logic",
            "-I",
            "inc/game_flow",
            "-I",
            "inc/game_flow/game_states",
            "-I",
            "inc/guis",
            "-I",
            "inc/monte_carlo_trees",
            "-I",
            "inc/tests",
            "-I",
            "inc/utils",
            "-I",
            "inc/army_builders",
            "-I",
            "inc",
            "-I",
            "/usr/local/include",
            "-Wno-unused-parameter",
            "-g",
            "-fdiagnostics-color",
            "-O0",
            "-o",
            "obj/tests/PushBackTest.o",
            "src/tests/PushBackTest.cpp"
        ],
        "directory": "/home/brzegorz/Projects/neuro-ai",
        "file": "src/tests/PushBackTest.cpp"
    },
    {
        "arguments": [
            "clang++",
            "-c",
            "-std=c++17",
            "-Wall",
            "-Wextra",
            "-pedantic",
            "-I",
            "inc/tile_implementation",
            "-I",
            "inc/tile_implementation/battle_actions",
            "-I",
            "inc/tile_implementation/usage_functions",
            "-I",
            "inc/tile_implementation/passive_bonuses",
            "-I",
            "inc/tile_implementation/innate_functions",
            "-I",
            "inc/player_implementation",
            "-I",
            "inc/player_implementation/player_logic",
            "-I",
            "inc/game_flow",
            "-I",
            "inc/game_flow/game_states",
            "-I",
            "inc/guis",
            "-I",
            "inc/monte_carlo_trees",
            "-I",
            "inc/tests",
            "-I",
            "inc/utils",
            "-I",
            "inc/army_builders",
            "-I",
            "inc",
            "-I",
            "/usr/local/include",
            "-Wno-unused-parameter",
            "-g",
            "-fdiagnostics-color",
            "-O0",
            "-o",
            "obj/utils/Coordinates.o",
            "src/utils/Coordinates.cpp"
        ],
        "directory": "/home/brzegorz/Projects/neuro-ai",
        "file": "src/utils/Coordinates.cpp"
    },
    {
        "arguments": [
            "clang++",
            "-c",
            "-std=c++17",
            "-Wall",
            "-Wextra",
            "-pedantic",
            "-I",
            "inc/tile_implementation",
            "-I",
            "inc/tile_implementation/battle_actions",
            "-I",
            "inc/tile_implementation/usage_functions",
            "-I",
            "inc/tile_implementation/passive_bonuses",
            "-I",
            "inc/tile_implementation/innate_functions",
            "-I",
            "inc/player_implementation",
            "-I",
            "inc/player_implementation/player_logic",
            "-I",
            "inc/game_flow",
            "-I",
            "inc/game_flow/game_states",
            "-I",
            "inc/guis",
            "-I",
            "inc/monte_carlo_trees",
            "-I",
            "inc/tests",
            "-I",
            "inc/utils",
            "-I",
            "inc/army_builders",
            "-I",
            "inc",
            "-I",
            "/usr/local/include",
            "-Wno-unused-parameter",
            "-g",
            "-fdiagnostics-color",
            "-O0",
            "-o",
            "obj/tile_implementation/battle_actions/ShootGauss.o",
            "src/tile_implementation/battle_actions/ShootGauss.cpp"
        ],
        "directory": "/home/brzegorz/Projects/neuro-ai",
        "file": "src/tile_implementation/battle_actions/ShootGauss.cpp"
    },
    {
        "arguments": [
            "clang++",
            "-c",
            "-std=c++17",
            "-Wall",
            "-Wextra",
            "-pedantic",
            "-I",
            "inc/tile_implementation",
            "-I",
            "inc/tile_implementation/battle_actions",
            "-I",
            "inc/tile_implementation/usage_functions",
            "-I",
            "inc/tile_implementation/passive_bonuses",
            "-I",
            "inc/tile_implementation/innate_functions",
            "-I",
            "inc/player_implementation",
            "-I",
            "inc/player_implementation/player_logic",
            "-I",
            "inc/game_flow",
            "-I",
            "inc/game_flow/game_states",
            "-I",
            "inc/guis",
            "-I",
            "inc/monte_carlo_trees",
            "-I",
            "inc/tests",
            "-I",
            "inc/utils",
            "-I",
            "inc/army_builders",
            "-I",
            "inc",
            "-I",
            "/usr/local/include",
            "-Wno-unused-parameter",
            "-g",
            "-fdiagnostics-color",
            "-O0",
            "-o",
            "obj/Board.o",
            "src/Board.cpp"
        ],
        "directory": "/home/brzegorz/Projects/neuro-ai",
        "file": "src/Board.cpp"
    },
    {
        "arguments": [
            "clang++",
            "-c",
            "-std=c++17",
            "-Wall",
            "-Wextra",
            "-pedantic",
            "-I",
            "inc/tile_implementation",
            "-I",
            "inc/tile_implementation/battle_actions",
            "-I",
            "inc/tile_implementation/usage_functions",
            "-I",
            "inc/tile_implementation/passive_bonuses",
            "-I",
            "inc/tile_implementation/innate_functions",
            "-I",
            "inc/player_implementation",
            "-I",
            "inc/player_implementation/player_logic",
            "-I",
            "inc/game_flow",
            "-I",
            "inc/game_flow/game_states",
            "-I",
            "inc/guis",
            "-I",
            "inc/monte_carlo_trees",
            "-I",
            "inc/tests",
            "-I",
            "inc/utils",
            "-I",
            "inc/army_builders",
            "-I",
            "inc",
            "-I",
            "/usr/local/include",
            "-Wno-unused-parameter",
            "-g",
            "-fdiagnostics-color",
            "-O0",
            "-o",
            "obj/game_flow/game_states/ObtainWayOfUsingTheTile.o",
            "src/game_flow/game_states/ObtainWayOfUsingTheTile.cpp"
        ],
        "directory": "/home/brzegorz/Projects/neuro-ai",
        "file": "src/game_flow/game_states/ObtainWayOfUsingTheTile.cpp"
    },
    {
        "arguments": [
            "clang++",
            "-c",
            "-std=c++17",
            "-Wall",
            "-Wextra",
            "-pedantic",
            "-I",
            "inc/tile_implementation",
            "-I",
            "inc/tile_implementation/battle_actions",
            "-I",
            "inc/tile_implementation/usage_functions",
            "-I",
            "inc/tile_implementation/passive_bonuses",
            "-I",
            "inc/tile_implementation/innate_functions",
            "-I",
            "inc/player_implementation",
            "-I",
            "inc/player_implementation/player_logic",
            "-I",
            "inc/game_flow",
            "-I",
            "inc/game_flow/game_states",
            "-I",
            "inc/guis",
            "-I",
            "inc/monte_carlo_trees",
            "-I",
            "inc/tests",
            "-I",
            "inc/utils",
            "-I",
            "inc/army_builders",
            "-I",
            "inc",
            "-I",
            "/usr/local/include",
            "-Wno-unused-parameter",
            "-g",
            "-fdiagnostics-color",
            "-O0",
            "-o",
            "obj/player_implementation/player_logic/MctsPlayerLogic.o",
            "src/player_implementation/player_logic/MctsPlayerLogic.cpp"
        ],
        "directory": "/home/brzegorz/Projects/neuro-ai",
        "file": "src/player_implementation/player_logic/MctsPlayerLogic.cpp"
    },
    {
        "arguments": [
            "clang++",
            "-c",
            "-std=c++17",
            "-Wall",
            "-Wextra",
            "-pedantic",
            "-I",
            "inc/tile_implementation",
            "-I",
            "inc/tile_implementation/battle_actions",
            "-I",
            "inc/tile_implementation/usage_functions",
            "-I",
            "inc/tile_implementation/passive_bonuses",
            "-I",
            "inc/tile_implementation/innate_functions",
            "-I",
            "inc/player_implementation",
            "-I",
            "inc/player_implementation/player_logic",
            "-I",
            "inc/game_flow",
            "-I",
            "inc/game_flow/game_states",
            "-I",
            "inc/guis",
            "-I",
            "inc/monte_carlo_trees",
            "-I",
            "inc/tests",
            "-I",
            "inc/utils",
            "-I",
            "inc/army_builders",
            "-I",
            "inc",
            "-I",
            "/usr/local/include",
            "-Wno-unused-parameter",
            "-g",
            "-fdiagnostics-color",
            "-O0",
            "-o",
            "obj/tests/CloningTest.o",
            "src/tests/CloningTest.cpp"
        ],
        "directory": "/home/brzegorz/Projects/neuro-ai",
        "file": "src/tests/CloningTest.cpp"
    },
    {
        "arguments": [
            "clang++",
            "-c",
            "-std=c++17",
            "-Wall",
            "-Wextra",
            "-pedantic",
            "-I",
            "inc/tile_implementation",
            "-I",
            "inc/tile_implementation/battle_actions",
            "-I",
            "inc/tile_implementation/usage_functions",
            "-I",
            "inc/tile_implementation/passive_bonuses",
            "-I",
            "inc/tile_implementation/innate_functions",
            "-I",
            "inc/player_implementation",
            "-I",
            "inc/player_implementation/player_logic",
            "-I",
            "inc/game_flow",
            "-I",
            "inc/game_flow/game_states",
            "-I",
            "inc/guis",
            "-I",
            "inc/monte_carlo_trees",
            "-I",
            "inc/tests",
            "-I",
            "inc/utils",
            "-I",
            "inc/army_builders",
            "-I",
            "inc",
            "-I",
            "/usr/local/include",
            "-Wno-unused-parameter",
            "-g",
            "-fdiagnostics-color",
            "-O0",
            "-o",
            "obj/tests/SimpleBattleTest.o",
            "src/tests/SimpleBattleTest.cpp"
        ],
        "directory": "/home/brzegorz/Projects/neuro-ai",
        "file": "src/tests/SimpleBattleTest.cpp"
    },
    {
        "arguments": [
            "clang++",
            "-c",
            "-std=c++17",
            "-Wall",
            "-Wextra",
            "-pedantic",
            "-I",
            "inc/tile_implementation",
            "-I",
            "inc/tile_implementation/battle_actions",
            "-I",
            "inc/tile_implementation/usage_functions",
            "-I",
            "inc/tile_implementation/passive_bonuses",
            "-I",
            "inc/tile_implementation/innate_functions",
            "-I",
            "inc/player_implementation",
            "-I",
            "inc/player_implementation/player_logic",
            "-I",
            "inc/game_flow",
            "-I",
            "inc/game_flow/game_states",
            "-I",
            "inc/guis",
            "-I",
            "inc/monte_carlo_trees",
            "-I",
            "inc/tests",
            "-I",
            "inc/utils",
            "-I",
            "inc/army_builders",
            "-I",
            "inc",
            "-I",
            "/usr/local/include",
            "-Wno-unused-parameter",
            "-g",
            "-fdiagnostics-color",
            "-O0",
            "-o",
            "obj/tile_implementation/innate_functions/InnateMovement.o",
            "src/tile_implementation/innate_functions/InnateMovement.cpp"
        ],
        "directory": "/home/brzegorz/Projects/neuro-ai",
        "file": "src/tile_implementation/innate_functions/InnateMovement.cpp"
    },
    {
        "arguments": [
            "clang++",
            "-c",
            "-std=c++17",
            "-Wall",
            "-Wextra",
            "-pedantic",
            "-I",
            "inc/tile_implementation",
            "-I",
            "inc/tile_implementation/battle_actions",
            "-I",
            "inc/tile_implementation/usage_functions",
            "-I",
            "inc/tile_implementation/passive_bonuses",
            "-I",
            "inc/tile_implementation/innate_functions",
            "-I",
            "inc/player_implementation",
            "-I",
            "inc/player_implementation/player_logic",
            "-I",
            "inc/game_flow",
            "-I",
            "inc/game_flow/game_states",
            "-I",
            "inc/guis",
            "-I",
            "inc/monte_carlo_trees",
            "-I",
            "inc/tests",
            "-I",
            "inc/utils",
            "-I",
            "inc/army_builders",
            "-I",
            "inc",
            "-I",
            "/usr/local/include",
            "-Wno-unused-parameter",
            "-g",
            "-fdiagnostics-color",
            "-O0",
            "-o",
            "obj/game_flow/game_states/PlaceHeadquarters.o",
            "src/game_flow/game_states/PlaceHeadquarters.cpp"
        ],
        "directory": "/home/brzegorz/Projects/neuro-ai",
        "file": "src/game_flow/game_states/PlaceHeadquarters.cpp"
    },
    {
        "arguments": [
            "clang++",
            "-c",
            "-std=c++17",
            "-Wall",
            "-Wextra",
            "-pedantic",
            "-I",
            "inc/tile_implementation",
            "-I",
            "inc/tile_implementation/battle_actions",
            "-I",
            "inc/tile_implementation/usage_functions",
            "-I",
            "inc/tile_implementation/passive_bonuses",
            "-I",
            "inc/tile_implementation/innate_functions",
            "-I",
            "inc/player_implementation",
            "-I",
            "inc/player_implementation/player_logic",
            "-I",
            "inc/game_flow",
            "-I",
            "inc/game_flow/game_states",
            "-I",
            "inc/guis",
            "-I",
            "inc/monte_carlo_trees",
            "-I",
            "inc/tests",
            "-I",
            "inc/utils",
            "-I",
            "inc/army_builders",
            "-I",
            "inc",
            "-I",
            "/usr/local/include",
            "-Wno-unused-parameter",
            "-g",
            "-fdiagnostics-color",
            "-O0",
            "-o",
            "obj/monte_carlo_trees/Node.o",
            "src/monte_carlo_trees/Node.cpp"
        ],
        "directory": "/home/brzegorz/Projects/neuro-ai",
        "file": "src/monte_carlo_trees/Node.cpp"
    },
    {
        "arguments": [
            "clang++",
            "-c",
            "-std=c++17",
            "-Wall",
            "-Wextra",
            "-pedantic",
            "-I",
            "inc/tile_implementation",
            "-I",
            "inc/tile_implementation/battle_actions",
            "-I",
            "inc/tile_implementation/usage_functions",
            "-I",
            "inc/tile_implementation/passive_bonuses",
            "-I",
            "inc/tile_implementation/innate_functions",
            "-I",
            "inc/player_implementation",
            "-I",
            "inc/player_implementation/player_logic",
            "-I",
            "inc/game_flow",
            "-I",
            "inc/game_flow/game_states",
            "-I",
            "inc/guis",
            "-I",
            "inc/monte_carlo_trees",
            "-I",
            "inc/tests",
            "-I",
            "inc/utils",
            "-I",
            "inc/army_builders",
            "-I",
            "inc",
            "-I",
            "/usr/local/include",
            "-Wno-unused-parameter",
            "-g",
            "-fdiagnostics-color",
            "-O0",
            "-o",
            "obj/game_flow/game_states/MakePlayerTurn.o",
            "src/game_flow/game_states/MakePlayerTurn.cpp"
        ],
        "directory": "/home/brzegorz/Projects/neuro-ai",
        "file": "src/game_flow/game_states/MakePlayerTurn.cpp"
    },
    {
        "arguments": [
            "clang++",
            "-c",
            "-std=c++17",
            "-Wall",
            "-Wextra",
            "-pedantic",
            "-I",
            "inc/tile_implementation",
            "-I",
            "inc/tile_implementation/battle_actions",
            "-I",
            "inc/tile_implementation/usage_functions",
            "-I",
            "inc/tile_implementation/passive_bonuses",
            "-I",
            "inc/tile_implementation/innate_functions",
            "-I",
            "inc/player_implementation",
            "-I",
            "inc/player_implementation/player_logic",
            "-I",
            "inc/game_flow",
            "-I",
            "inc/game_flow/game_states",
            "-I",
            "inc/guis",
            "-I",
            "inc/monte_carlo_trees",
            "-I",
            "inc/tests",
            "-I",
            "inc/utils",
            "-I",
            "inc/army_builders",
            "-I",
            "inc",
            "-I",
            "/usr/local/include",
            "-Wno-unused-parameter",
            "-g",
            "-fdiagnostics-color",
            "-O0",
            "-o",
            "obj/tile_implementation/passive_bonuses/MalusNet.o",
            "src/tile_implementation/passive_bonuses/MalusNet.cpp"
        ],
        "directory": "/home/brzegorz/Projects/neuro-ai",
        "file": "src/tile_implementation/passive_bonuses/MalusNet.cpp"
    },
    {
        "arguments": [
            "clang++",
            "-c",
            "-std=c++17",
            "-Wall",
            "-Wextra",
            "-pedantic",
            "-I",
            "inc/tile_implementation",
            "-I",
            "inc/tile_implementation/battle_actions",
            "-I",
            "inc/tile_implementation/usage_functions",
            "-I",
            "inc/tile_implementation/passive_bonuses",
            "-I",
            "inc/tile_implementation/innate_functions",
            "-I",
            "inc/player_implementation",
            "-I",
            "inc/player_implementation/player_logic",
            "-I",
            "inc/game_flow",
            "-I",
            "inc/game_flow/game_states",
            "-I",
            "inc/guis",
            "-I",
            "inc/monte_carlo_trees",
            "-I",
            "inc/tests",
            "-I",
            "inc/utils",
            "-I",
            "inc/army_builders",
            "-I",
            "inc",
            "-I",
            "/usr/local/include",
            "-Wno-unused-parameter",
            "-g",
            "-fdiagnostics-color",
            "-O0",
            "-o",
            "obj/tests/DamageDealingTest.o",
            "src/tests/DamageDealingTest.cpp"
        ],
        "directory": "/home/brzegorz/Projects/neuro-ai",
        "file": "src/tests/DamageDealingTest.cpp"
    },
    {
        "arguments": [
            "clang++",
            "-c",
            "-std=c++17",
            "-Wall",
            "-Wextra",
            "-pedantic",
            "-I",
            "inc/tile_implementation",
            "-I",
            "inc/tile_implementation/battle_actions",
            "-I",
            "inc/tile_implementation/usage_functions",
            "-I",
            "inc/tile_implementation/passive_bonuses",
            "-I",
            "inc/tile_implementation/innate_functions",
            "-I",
            "inc/player_implementation",
            "-I",
            "inc/player_implementation/player_logic",
            "-I",
            "inc/game_flow",
            "-I",
            "inc/game_flow/game_states",
            "-I",
            "inc/guis",
            "-I",
            "inc/monte_carlo_trees",
            "-I",
            "inc/tests",
            "-I",
            "inc/utils",
            "-I",
            "inc/army_builders",
            "-I",
            "inc",
            "-I",
            "/usr/local/include",
            "-Wno-unused-parameter",
            "-g",
            "-fdiagnostics-color",
            "-O0",
            "-o",
            "obj/utils/Directions.o",
            "src/utils/Directions.cpp"
        ],
        "directory": "/home/brzegorz/Projects/neuro-ai",
        "file": "src/utils/Directions.cpp"
    },
    {
        "arguments": [
            "clang++",
            "-c",
            "-std=c++17",
            "-Wall",
            "-Wextra",
            "-pedantic",
            "-I",
            "inc/tile_implementation",
            "-I",
            "inc/tile_implementation/battle_actions",
            "-I",
            "inc/tile_implementation/usage_functions",
            "-I",
            "inc/tile_implementation/passive_bonuses",
            "-I",
            "inc/tile_implementation/innate_functions",
            "-I",
            "inc/player_implementation",
            "-I",
            "inc/player_implementation/player_logic",
            "-I",
            "inc/game_flow",
            "-I",
            "inc/game_flow/game_states",
            "-I",
            "inc/guis",
            "-I",
            "inc/monte_carlo_trees",
            "-I",
            "inc/tests",
            "-I",
            "inc/utils",
            "-I",
            "inc/army_builders",
            "-I",
            "inc",
            "-I",
            "/usr/local/include",
            "-Wno-unused-parameter",
            "-g",
            "-fdiagnostics-color",
            "-O0",
            "-o",
            "obj/tile_implementation/passive_bonuses/BonusStrengthHit.o",
            "src/tile_implementation/passive_bonuses/BonusStrengthHit.cpp"
        ],
        "directory": "/home/brzegorz/Projects/neuro-ai",
        "file": "src/tile_implementation/passive_bonuses/BonusStrengthHit.cpp"
    },
    {
        "arguments": [
            "clang++",
            "-c",
            "-std=c++17",
            "-Wall",
            "-Wextra",
            "-pedantic",
            "-I",
            "inc/tile_implementation",
            "-I",
            "inc/tile_implementation/battle_actions",
            "-I",
            "inc/tile_implementation/usage_functions",
            "-I",
            "inc/tile_implementation/passive_bonuses",
            "-I",
            "inc/tile_implementation/innate_functions",
            "-I",
            "inc/player_implementation",
            "-I",
            "inc/player_implementation/player_logic",
            "-I",
            "inc/game_flow",
            "-I",
            "inc/game_flow/game_states",
            "-I",
            "inc/guis",
            "-I",
            "inc/monte_carlo_trees",
            "-I",
            "inc/tests",
            "-I",
            "inc/utils",
            "-I",
            "inc/army_builders",
            "-I",
            "inc",
            "-I",
            "/usr/local/include",
            "-Wno-unused-parameter",
            "-g",
            "-fdiagnostics-color",
            "-O0",
            "-o",
            "obj/army_builders/ArmyBuilder.o",
            "src/army_builders/ArmyBuilder.cpp"
        ],
        "directory": "/home/brzegorz/Projects/neuro-ai",
        "file": "src/army_builders/ArmyBuilder.cpp"
    },
    {
        "arguments": [
            "clang++",
            "-c",
            "-std=c++17",
            "-Wall",
            "-Wextra",
            "-pedantic",
            "-I",
            "inc/tile_implementation",
            "-I",
            "inc/tile_implementation/battle_actions",
            "-I",
            "inc/tile_implementation/usage_functions",
            "-I",
            "inc/tile_implementation/passive_bonuses",
            "-I",
            "inc/tile_implementation/innate_functions",
            "-I",
            "inc/player_implementation",
            "-I",
            "inc/player_implementation/player_logic",
            "-I",
            "inc/game_flow",
            "-I",
            "inc/game_flow/game_states",
            "-I",
            "inc/guis",
            "-I",
            "inc/monte_carlo_trees",
            "-I",
            "inc/tests",
            "-I",
            "inc/utils",
            "-I",
            "inc/army_builders",
            "-I",
            "inc",
            "-I",
            "/usr/local/include",
            "-Wno-unused-parameter",
            "-g",
            "-fdiagnostics-color",
            "-O0",
            "-o",
            "obj/army_builders/MolochBuilder.o",
            "src/army_builders/MolochBuilder.cpp"
        ],
        "directory": "/home/brzegorz/Projects/neuro-ai",
        "file": "src/army_builders/MolochBuilder.cpp"
    },
    {
        "arguments": [
            "clang++",
            "-c",
            "-std=c++17",
            "-Wall",
            "-Wextra",
            "-pedantic",
            "-I",
            "inc/tile_implementation",
            "-I",
            "inc/tile_implementation/battle_actions",
            "-I",
            "inc/tile_implementation/usage_functions",
            "-I",
            "inc/tile_implementation/passive_bonuses",
            "-I",
            "inc/tile_implementation/innate_functions",
            "-I",
            "inc/player_implementation",
            "-I",
            "inc/player_implementation/player_logic",
            "-I",
            "inc/game_flow",
            "-I",
            "inc/game_flow/game_states",
            "-I",
            "inc/guis",
            "-I",
            "inc/monte_carlo_trees",
            "-I",
            "inc/tests",
            "-I",
            "inc/utils",
            "-I",
            "inc/army_builders",
            "-I",
            "inc",
            "-I",
            "/usr/local/include",
            "-Wno-unused-parameter",
            "-g",
            "-fdiagnostics-color",
            "-O0",
            "-o",
            "obj/VectorizedBoard.o",
            "src/VectorizedBoard.cpp"
        ],
        "directory": "/home/brzegorz/Projects/neuro-ai",
        "file": "src/VectorizedBoard.cpp"
    },
    {
        "arguments": [
            "clang++",
            "-c",
            "-std=c++17",
            "-Wall",
            "-Wextra",
            "-pedantic",
            "-I",
            "inc/tile_implementation",
            "-I",
            "inc/tile_implementation/battle_actions",
            "-I",
            "inc/tile_implementation/usage_functions",
            "-I",
            "inc/tile_implementation/passive_bonuses",
            "-I",
            "inc/tile_implementation/innate_functions",
            "-I",
            "inc/player_implementation",
            "-I",
            "inc/player_implementation/player_logic",
            "-I",
            "inc/game_flow",
            "-I",
            "inc/game_flow/game_states",
            "-I",
            "inc/guis",
            "-I",
            "inc/monte_carlo_trees",
            "-I",
            "inc/tests",
            "-I",
            "inc/utils",
            "-I",
            "inc/army_builders",
            "-I",
            "inc",
            "-I",
            "/usr/local/include",
            "-Wno-unused-parameter",
            "-g",
            "-fdiagnostics-color",
            "-O0",
            "-o",
            "obj/game_flow/game_states/UseTheTile.o",
            "src/game_flow/game_states/UseTheTile.cpp"
        ],
        "directory": "/home/brzegorz/Projects/neuro-ai",
        "file": "src/game_flow/game_states/UseTheTile.cpp"
    },
    {
        "arguments": [
            "clang++",
            "-c",
            "-std=c++17",
            "-Wall",
            "-Wextra",
            "-pedantic",
            "-I",
            "inc/tile_implementation",
            "-I",
            "inc/tile_implementation/battle_actions",
            "-I",
            "inc/tile_implementation/usage_functions",
            "-I",
            "inc/tile_implementation/passive_bonuses",
            "-I",
            "inc/tile_implementation/innate_functions",
            "-I",
            "inc/player_implementation",
            "-I",
            "inc/player_implementation/player_logic",
            "-I",
            "inc/game_flow",
            "-I",
            "inc/game_flow/game_states",
            "-I",
            "inc/guis",
            "-I",
            "inc/monte_carlo_trees",
            "-I",
            "inc/tests",
            "-I",
            "inc/utils",
            "-I",
            "inc/army_builders",
            "-I",
            "inc",
            "-I",
            "/usr/local/include",
            "-Wno-unused-parameter",
            "-g",
            "-fdiagnostics-color",
            "-O0",
            "-o",
            "obj/tile_implementation/passive_bonuses/BonusAttack.o",
            "src/tile_implementation/passive_bonuses/BonusAttack.cpp"
        ],
        "directory": "/home/brzegorz/Projects/neuro-ai",
        "file": "src/tile_implementation/passive_bonuses/BonusAttack.cpp"
    },
    {
        "arguments": [
            "clang++",
            "-c",
            "-std=c++17",
            "-Wall",
            "-Wextra",
            "-pedantic",
            "-I",
            "inc/tile_implementation",
            "-I",
            "inc/tile_implementation/battle_actions",
            "-I",
            "inc/tile_implementation/usage_functions",
            "-I",
            "inc/tile_implementation/passive_bonuses",
            "-I",
            "inc/tile_implementation/innate_functions",
            "-I",
            "inc/player_implementation",
            "-I",
            "inc/player_implementation/player_logic",
            "-I",
            "inc/game_flow",
            "-I",
            "inc/game_flow/game_states",
            "-I",
            "inc/guis",
            "-I",
            "inc/monte_carlo_trees",
            "-I",
            "inc/tests",
            "-I",
            "inc/utils",
            "-I",
            "inc/army_builders",
            "-I",
            "inc",
            "-I",
            "/usr/local/include",
            "-Wno-unused-parameter",
            "-g",
            "-fdiagnostics-color",
            "-O0",
            "-o",
            "obj/tile_implementation/usage_functions/PlaceOnBoard.o",
            "src/tile_implementation/usage_functions/PlaceOnBoard.cpp"
        ],
        "directory": "/home/brzegorz/Projects/neuro-ai",
        "file": "src/tile_implementation/usage_functions/PlaceOnBoard.cpp"
    },
    {
        "arguments": [
            "clang++",
            "-c",
            "-std=c++17",
            "-Wall",
            "-Wextra",
            "-pedantic",
            "-I",
            "inc/tile_implementation",
            "-I",
            "inc/tile_implementation/battle_actions",
            "-I",
            "inc/tile_implementation/usage_functions",
            "-I",
            "inc/tile_implementation/passive_bonuses",
            "-I",
            "inc/tile_implementation/innate_functions",
            "-I",
            "inc/player_implementation",
            "-I",
            "inc/player_implementation/player_logic",
            "-I",
            "inc/game_flow",
            "-I",
            "inc/game_flow/game_states",
            "-I",
            "inc/guis",
            "-I",
            "inc/monte_carlo_trees",
            "-I",
            "inc/tests",
            "-I",
            "inc/utils",
            "-I",
            "inc/army_builders",
            "-I",
            "inc",
            "-I",
            "/usr/local/include",
            "-Wno-unused-parameter",
            "-g",
            "-fdiagnostics-color",
            "-O0",
            "-o",
            "obj/game_flow/game_states/MakeFinalTurn.o",
            "src/game_flow/game_states/MakeFinalTurn.cpp"
        ],
        "directory": "/home/brzegorz/Projects/neuro-ai",
        "file": "src/game_flow/game_states/MakeFinalTurn.cpp"
    },
    {
        "arguments": [
            "clang++",
            "-c",
            "-std=c++17",
            "-Wall",
            "-Wextra",
            "-pedantic",
            "-I",
            "inc/tile_implementation",
            "-I",
            "inc/tile_implementation/battle_actions",
            "-I",
            "inc/tile_implementation/usage_functions",
            "-I",
            "inc/tile_implementation/passive_bonuses",
            "-I",
            "inc/tile_implementation/innate_functions",
            "-I",
            "inc/player_implementation",
            "-I",
            "inc/player_implementation/player_logic",
            "-I",
            "inc/game_flow",
            "-I",
            "inc/game_flow/game_states",
            "-I",
            "inc/guis",
            "-I",
            "inc/monte_carlo_trees",
            "-I",
            "inc/tests",
            "-I",
            "inc/utils",
            "-I",
            "inc/army_builders",
            "-I",
            "inc",
            "-I",
            "/usr/local/include",
            "-Wno-unused-parameter",
            "-g",
            "-fdiagnostics-color",
            "-O0",
            "-o",
            "obj/game_flow/game_states/UseTheInnateAbility.o",
            "src/game_flow/game_states/UseTheInnateAbility.cpp"
        ],
        "directory": "/home/brzegorz/Projects/neuro-ai",
        "file": "src/game_flow/game_states/UseTheInnateAbility.cpp"
    },
    {
        "arguments": [
            "clang++",
            "-c",
            "-std=c++17",
            "-Wall",
            "-Wextra",
            "-pedantic",
            "-I",
            "inc/tile_implementation",
            "-I",
            "inc/tile_implementation/battle_actions",
            "-I",
            "inc/tile_implementation/usage_functions",
            "-I",
            "inc/tile_implementation/passive_bonuses",
            "-I",
            "inc/tile_implementation/innate_functions",
            "-I",
            "inc/player_implementation",
            "-I",
            "inc/player_implementation/player_logic",
            "-I",
            "inc/game_flow",
            "-I",
            "inc/game_flow/game_states",
            "-I",
            "inc/guis",
            "-I",
            "inc/monte_carlo_trees",
            "-I",
            "inc/tests",
            "-I",
            "inc/utils",
            "-I",
            "inc/army_builders",
            "-I",
            "inc",
            "-I",
            "/usr/local/include",
            "-Wno-unused-parameter",
            "-g",
            "-fdiagnostics-color",
            "-O0",
            "-o",
            "obj/game_flow/game_states/ObtainTileWithInnate.o",
            "src/game_flow/game_states/ObtainTileWithInnate.cpp"
        ],
        "directory": "/home/brzegorz/Projects/neuro-ai",
        "file": "src/game_flow/game_states/ObtainTileWithInnate.cpp"
    },
    {
        "arguments": [
            "clang++",
            "-c",
            "-std=c++17",
            "-Wall",
            "-Wextra",
            "-pedantic",
            "-I",
            "inc/tile_implementation",
            "-I",
            "inc/tile_implementation/battle_actions",
            "-I",
            "inc/tile_implementation/usage_functions",
            "-I",
            "inc/tile_implementation/passive_bonuses",
            "-I",
            "inc/tile_implementation/innate_functions",
            "-I",
            "inc/player_implementation",
            "-I",
            "inc/player_implementation/player_logic",
            "-I",
            "inc/game_flow",
            "-I",
            "inc/game_flow/game_states",
            "-I",
            "inc/guis",
            "-I",
            "inc/monte_carlo_trees",
            "-I",
            "inc/tests",
            "-I",
            "inc/utils",
            "-I",
            "inc/army_builders",
            "-I",
            "inc",
            "-I",
            "/usr/local/include",
            "-Wno-unused-parameter",
            "-g",
            "-fdiagnostics-color",
            "-O0",
            "-o",
            "obj/utils/Rng.o",
            "src/utils/Rng.cpp"
        ],
        "directory": "/home/brzegorz/Projects/neuro-ai",
        "file": "src/utils/Rng.cpp"
    },
    {
        "arguments": [
            "clang++",
            "-c",
            "-std=c++17",
            "-Wall",
            "-Wextra",
            "-pedantic",
            "-I",
            "inc/tile_implementation",
            "-I",
            "inc/tile_implementation/battle_actions",
            "-I",
            "inc/tile_implementation/usage_functions",
            "-I",
            "inc/tile_implementation/passive_bonuses",
            "-I",
            "inc/tile_implementation/innate_functions",
            "-I",
            "inc/player_implementation",
            "-I",
            "inc/player_implementation/player_logic",
            "-I",
            "inc/game_flow",
            "-I",
            "inc/game_flow/game_states",
            "-I",
            "inc/guis",
            "-I",
            "inc/monte_carlo_trees",
            "-I",
            "inc/tests",
            "-I",
            "inc/utils",
            "-I",
            "inc/army_builders",
            "-I",
            "inc",
            "-I",
            "/usr/local/include",
            "-Wno-unused-parameter",
            "-g",
            "-fdiagnostics-color",
            "-O0",
            "-o",
            "obj/tile_implementation/passive_bonuses/MalusInitiative.o",
            "src/tile_implementation/passive_bonuses/MalusInitiative.cpp"
        ],
        "directory": "/home/brzegorz/Projects/neuro-ai",
        "file": "src/tile_implementation/passive_bonuses/MalusInitiative.cpp"
    },
    {
        "arguments": [
            "clang++",
            "-c",
            "-std=c++17",
            "-Wall",
            "-Wextra",
            "-pedantic",
            "-I",
            "inc/tile_implementation",
            "-I",
            "inc/tile_implementation/battle_actions",
            "-I",
            "inc/tile_implementation/usage_functions",
            "-I",
            "inc/tile_implementation/passive_bonuses",
            "-I",
            "inc/tile_implementation/innate_functions",
            "-I",
            "inc/player_implementation",
            "-I",
            "inc/player_implementation/player_logic",
            "-I",
            "inc/game_flow",
            "-I",
            "inc/game_flow/game_states",
            "-I",
            "inc/guis",
            "-I",
            "inc/monte_carlo_trees",
            "-I",
            "inc/tests",
            "-I",
            "inc/utils",
            "-I",
            "inc/army_builders",
            "-I",
            "inc",
            "-I",
            "/usr/local/include",
            "-Wno-unused-parameter",
            "-g",
            "-fdiagnostics-color",
            "-O0",
            "-o",
            "obj/tile_implementation/innate_functions/InnateFunction.o",
            "src/tile_implementation/innate_functions/InnateFunction.cpp"
        ],
        "directory": "/home/brzegorz/Projects/neuro-ai",
        "file": "src/tile_implementation/innate_functions/InnateFunction.cpp"
    },
    {
        "arguments": [
            "clang++",
            "-c",
            "-std=c++17",
            "-Wall",
            "-Wextra",
            "-pedantic",
            "-I",
            "inc/tile_implementation",
            "-I",
            "inc/tile_implementation/battle_actions",
            "-I",
            "inc/tile_implementation/usage_functions",
            "-I",
            "inc/tile_implementation/passive_bonuses",
            "-I",
            "inc/tile_implementation/innate_functions",
            "-I",
            "inc/player_implementation",
            "-I",
            "inc/player_implementation/player_logic",
            "-I",
            "inc/game_flow",
            "-I",
            "inc/game_flow/game_states",
            "-I",
            "inc/guis",
            "-I",
            "inc/monte_carlo_trees",
            "-I",
            "inc/tests",
            "-I",
            "inc/utils",
            "-I",
            "inc/army_builders",
            "-I",
            "inc",
            "-I",
            "/usr/local/include",
            "-Wno-unused-parameter",
            "-g",
            "-fdiagnostics-color",
            "-O0",
            "-o",
            "obj/main.o",
            "src/main.cpp"
        ],
        "directory": "/home/brzegorz/Projects/neuro-ai",
        "file": "src/main.cpp"
    },
    {
        "arguments": [
            "clang++",
            "-c",
            "-std=c++17",
            "-Wall",
            "-Wextra",
            "-pedantic",
            "-I",
            "inc/tile_implementation",
            "-I",
            "inc/tile_implementation/battle_actions",
            "-I",
            "inc/tile_implementation/usage_functions",
            "-I",
            "inc/tile_implementation/passive_bonuses",
            "-I",
            "inc/tile_implementation/innate_functions",
            "-I",
            "inc/player_implementation",
            "-I",
            "inc/player_implementation/player_logic",
            "-I",
            "inc/game_flow",
            "-I",
            "inc/game_flow/game_states",
            "-I",
            "inc/guis",
            "-I",
            "inc/monte_carlo_trees",
            "-I",
            "inc/tests",
            "-I",
            "inc/utils",
            "-I",
            "inc/army_builders",
            "-I",
            "inc",
            "-I",
            "/usr/local/include",
            "-Wno-unused-parameter",
            "-g",
            "-fdiagnostics-color",
            "-O0",
            "-o",
            "obj/tests/EqualityOperatorsTest.o",
            "src/tests/EqualityOperatorsTest.cpp"
        ],
        "directory": "/home/brzegorz/Projects/neuro-ai",
        "file": "src/tests/EqualityOperatorsTest.cpp"
    },
    {
        "arguments": [
            "clang++",
            "-c",
            "-std=c++17",
            "-Wall",
            "-Wextra",
            "-pedantic",
            "-I",
            "inc/tile_implementation",
            "-I",
            "inc/tile_implementation/battle_actions",
            "-I",
            "inc/tile_implementation/usage_functions",
            "-I",
            "inc/tile_implementation/passive_bonuses",
            "-I",
            "inc/tile_implementation/innate_functions",
            "-I",
            "inc/player_implementation",
            "-I",
            "inc/player_implementation/player_logic",
            "-I",
            "inc/game_flow",
            "-I",
            "inc/game_flow/game_states",
            "-I",
            "inc/guis",
            "-I",
            "inc/monte_carlo_trees",
            "-I",
            "inc/tests",
            "-I",
            "inc/utils",
            "-I",
            "inc/army_builders",
            "-I",
            "inc",
            "-I",
            "/usr/local/include",
            "-Wno-unused-parameter",
            "-g",
            "-fdiagnostics-color",
            "-O0",
            "-o",
            "obj/monte_carlo_trees/MonteCarloTreeSearch.o",
            "src/monte_carlo_trees/MonteCarloTreeSearch.cpp"
        ],
        "directory": "/home/brzegorz/Projects/neuro-ai",
        "file": "src/monte_carlo_trees/MonteCarloTreeSearch.cpp"
    },
    {
        "arguments": [
            "clang++",
            "-c",
            "-std=c++17",
            "-Wall",
            "-Wextra",
            "-pedantic",
            "-I",
            "inc/tile_implementation",
            "-I",
            "inc/tile_implementation/battle_actions",
            "-I",
            "inc/tile_implementation/usage_functions",
            "-I",
            "inc/tile_implementation/passive_bonuses",
            "-I",
            "inc/tile_implementation/innate_functions",
            "-I",
            "inc/player_implementation",
            "-I",
            "inc/player_implementation/player_logic",
            "-I",
            "inc/game_flow",
            "-I",
            "inc/game_flow/game_states",
            "-I",
            "inc/guis",
            "-I",
            "inc/monte_carlo_trees",
            "-I",
            "inc/tests",
            "-I",
            "inc/utils",
            "-I",
            "inc/army_builders",
            "-I",
            "inc",
            "-I",
            "/usr/local/include",
            "-Wno-unused-parameter",
            "-g",
            "-fdiagnostics-color",
            "-O0",
            "-o",
            "obj/tile_implementation/passive_bonuses/MalusScoper.o",
            "src/tile_implementation/passive_bonuses/MalusScoper.cpp"
        ],
        "directory": "/home/brzegorz/Projects/neuro-ai",
        "file": "src/tile_implementation/passive_bonuses/MalusScoper.cpp"
    },
    {
        "arguments": [
            "clang++",
            "-c",
            "-std=c++17",
            "-Wall",
            "-Wextra",
            "-pedantic",
            "-I",
            "inc/tile_implementation",
            "-I",
            "inc/tile_implementation/battle_actions",
            "-I",
            "inc/tile_implementation/usage_functions",
            "-I",
            "inc/tile_implementation/passive_bonuses",
            "-I",
            "inc/tile_implementation/innate_functions",
            "-I",
            "inc/player_implementation",
            "-I",
            "inc/player_implementation/player_logic",
            "-I",
            "inc/game_flow",
            "-I",
            "inc/game_flow/game_states",
            "-I",
            "inc/guis",
            "-I",
            "inc/monte_carlo_trees",
            "-I",
            "inc/tests",
            "-I",
            "inc/utils",
            "-I",
            "inc/army_builders",
            "-I",
            "inc",
            "-I",
            "/usr/local/include",
            "-Wno-unused-parameter",
            "-g",
            "-fdiagnostics-color",
            "-O0",
            "-o",
            "obj/tile_implementation/passive_bonuses/BonusInitiative.o",
            "src/tile_implementation/passive_bonuses/BonusInitiative.cpp"
        ],
        "directory": "/home/brzegorz/Projects/neuro-ai",
        "file": "src/tile_implementation/passive_bonuses/BonusInitiative.cpp"
    },
    {
        "arguments": [
            "clang++",
            "-c",
            "-std=c++17",
            "-Wall",
            "-Wextra",
            "-pedantic",
            "-I",
            "inc/tile_implementation",
            "-I",
            "inc/tile_implementation/battle_actions",
            "-I",
            "inc/tile_implementation/usage_functions",
            "-I",
            "inc/tile_implementation/passive_bonuses",
            "-I",
            "inc/tile_implementation/innate_functions",
            "-I",
            "inc/player_implementation",
            "-I",
            "inc/player_implementation/player_logic",
            "-I",
            "inc/game_flow",
            "-I",
            "inc/game_flow/game_states",
            "-I",
            "inc/guis",
            "-I",
            "inc/monte_carlo_trees",
            "-I",
            "inc/tests",
            "-I",
            "inc/utils",
            "-I",
            "inc/army_builders",
            "-I",
            "inc",
            "-I",
            "/usr/local/include",
            "-Wno-unused-parameter",
            "-g",
            "-fdiagnostics-color",
            "-O0",
            "-o",
            "obj/tile_implementation/battle_actions/Hit.o",
            "src/tile_implementation/battle_actions/Hit.cpp"
        ],
        "directory": "/home/brzegorz/Projects/neuro-ai",
        "file": "src/tile_implementation/battle_actions/Hit.cpp"
    },
    {
        "arguments": [
            "clang++",
            "-c",
            "-std=c++17",
            "-Wall",
            "-Wextra",
            "-pedantic",
            "-I",
            "inc/tile_implementation",
            "-I",
            "inc/tile_implementation/battle_actions",
            "-I",
            "inc/tile_implementation/usage_functions",
            "-I",
            "inc/tile_implementation/passive_bonuses",
            "-I",
            "inc/tile_implementation/innate_functions",
            "-I",
            "inc/player_implementation",
            "-I",
            "inc/player_implementation/player_logic",
            "-I",
            "inc/game_flow",
            "-I",
            "inc/game_flow/game_states",
            "-I",
            "inc/guis",
            "-I",
            "inc/monte_carlo_trees",
            "-I",
            "inc/tests",
            "-I",
            "inc/utils",
            "-I",
            "inc/army_builders",
            "-I",
            "inc",
            "-I",
            "/usr/local/include",
            "-Wno-unused-parameter",
            "-g",
            "-fdiagnostics-color",
            "-O0",
            "-o",
            "obj/player_implementation/PlayerResources.o",
            "src/player_implementation/PlayerResources.cpp"
        ],
        "directory": "/home/brzegorz/Projects/neuro-ai",
        "file": "src/player_implementation/PlayerResources.cpp"
    },
    {
        "arguments": [
            "clang++",
            "-c",
            "-std=c++17",
            "-Wall",
            "-Wextra",
            "-pedantic",
            "-I",
            "inc/tile_implementation",
            "-I",
            "inc/tile_implementation/battle_actions",
            "-I",
            "inc/tile_implementation/usage_functions",
            "-I",
            "inc/tile_implementation/passive_bonuses",
            "-I",
            "inc/tile_implementation/innate_functions",
            "-I",
            "inc/player_implementation",
            "-I",
            "inc/player_implementation/player_logic",
            "-I",
            "inc/game_flow",
            "-I",
            "inc/game_flow/game_states",
            "-I",
            "inc/guis",
            "-I",
            "inc/monte_carlo_trees",
            "-I",
            "inc/tests",
            "-I",
            "inc/utils",
            "-I",
            "inc/army_builders",
            "-I",
            "inc",
            "-I",
            "/usr/local/include",
            "-Wno-unused-parameter",
            "-g",
            "-fdiagnostics-color",
            "-O0",
            "-o",
            "obj/game_flow/game_states/ExecutePushBack.o",
            "src/game_flow/game_states/ExecutePushBack.cpp"
        ],
        "directory": "/home/brzegorz/Projects/neuro-ai",
        "file": "src/game_flow/game_states/ExecutePushBack.cpp"
    },
    {
        "arguments": [
            "clang++",
            "-c",
            "-std=c++17",
            "-Wall",
            "-Wextra",
            "-pedantic",
            "-I",
            "inc/tile_implementation",
            "-I",
            "inc/tile_implementation/battle_actions",
            "-I",
            "inc/tile_implementation/usage_functions",
            "-I",
            "inc/tile_implementation/passive_bonuses",
            "-I",
            "inc/tile_implementation/innate_functions",
            "-I",
            "inc/player_implementation",
            "-I",
            "inc/player_implementation/player_logic",
            "-I",
            "inc/game_flow",
            "-I",
            "inc/game_flow/game_states",
            "-I",
            "inc/guis",
            "-I",
            "inc/monte_carlo_trees",
            "-I",
            "inc/tests",
            "-I",
            "inc/utils",
            "-I",
            "inc/army_builders",
            "-I",
            "inc",
            "-I",
            "/usr/local/include",
            "-Wno-unused-parameter",
            "-g",
            "-fdiagnostics-color",
            "-O0",
            "-o",
            "obj/tile_implementation/usage_functions/Movement.o",
            "src/tile_implementation/usage_functions/Movement.cpp"
        ],
        "directory": "/home/brzegorz/Projects/neuro-ai",
        "file": "src/tile_implementation/usage_functions/Movement.cpp"
    },
    {
        "arguments": [
            "clang++",
            "-c",
            "-std=c++17",
            "-Wall",
            "-Wextra",
            "-pedantic",
            "-I",
            "inc/tile_implementation",
            "-I",
            "inc/tile_implementation/battle_actions",
            "-I",
            "inc/tile_implementation/usage_functions",
            "-I",
            "inc/tile_implementation/passive_bonuses",
            "-I",
            "inc/tile_implementation/innate_functions",
            "-I",
            "inc/player_implementation",
            "-I",
            "inc/player_implementation/player_logic",
            "-I",
            "inc/game_flow",
            "-I",
            "inc/game_flow/game_states",
            "-I",
            "inc/guis",
            "-I",
            "inc/monte_carlo_trees",
            "-I",
            "inc/tests",
            "-I",
            "inc/utils",
            "-I",
            "inc/army_builders",
            "-I",
            "inc",
            "-I",
            "/usr/local/include",
            "-Wno-unused-parameter",
            "-g",
            "-fdiagnostics-color",
            "-O0",
            "-o",
            "obj/tile_implementation/battle_actions/BattleAction.o",
            "src/tile_implementation/battle_actions/BattleAction.cpp"
        ],
        "directory": "/home/brzegorz/Projects/neuro-ai",
        "file": "src/tile_implementation/battle_actions/BattleAction.cpp"
    },
    {
        "arguments": [
            "clang++",
            "-c",
            "-std=c++17",
            "-Wall",
            "-Wextra",
            "-pedantic",
            "-I",
            "inc/tile_implementation",
            "-I",
            "inc/tile_implementation/battle_actions",
            "-I",
            "inc/tile_implementation/usage_functions",
            "-I",
            "inc/tile_implementation/passive_bonuses",
            "-I",
            "inc/tile_implementation/innate_functions",
            "-I",
            "inc/player_implementation",
            "-I",
            "inc/player_implementation/player_logic",
            "-I",
            "inc/game_flow",
            "-I",
            "inc/game_flow/game_states",
            "-I",
            "inc/guis",
            "-I",
            "inc/monte_carlo_trees",
            "-I",
            "inc/tests",
            "-I",
            "inc/utils",
            "-I",
            "inc/army_builders",
            "-I",
            "inc",
            "-I",
            "/usr/local/include",
            "-Wno-unused-parameter",
            "-g",
            "-fdiagnostics-color",
            "-O0",
            "-o",
            "obj/tile_implementation/usage_functions/BombInstant.o",
            "src/tile_implementation/usage_functions/BombInstant.cpp"
        ],
        "directory": "/home/brzegorz/Projects/neuro-ai",
        "file": "src/tile_implementation/usage_functions/BombInstant.cpp"
    },
    {
        "arguments": [
            "clang++",
            "-c",
            "-std=c++17",
            "-Wall",
            "-Wextra",
            "-pedantic",
            "-I",
            "inc/tile_implementation",
            "-I",
            "inc/tile_implementation/battle_actions",
            "-I",
            "inc/tile_implementation/usage_functions",
            "-I",
            "inc/tile_implementation/passive_bonuses",
            "-I",
            "inc/tile_implementation/innate_functions",
            "-I",
            "inc/player_implementation",
            "-I",
            "inc/player_implementation/player_logic",
            "-I",
            "inc/game_flow",
            "-I",
            "inc/game_flow/game_states",
            "-I",
            "inc/guis",
            "-I",
            "inc/monte_carlo_trees",
            "-I",
            "inc/tests",
            "-I",
            "inc/utils",
            "-I",
            "inc/army_builders",
            "-I",
            "inc",
            "-I",
            "/usr/local/include",
            "-Wno-unused-parameter",
            "-g",
            "-fdiagnostics-color",
            "-O0",
            "-o",
            "obj/game_flow/game_states/ObtainTileToUse.o",
            "src/game_flow/game_states/ObtainTileToUse.cpp"
        ],
        "directory": "/home/brzegorz/Projects/neuro-ai",
        "file": "src/game_flow/game_states/ObtainTileToUse.cpp"
    },
    {
        "arguments": [
            "clang++",
            "-c",
            "-std=c++17",
            "-Wall",
            "-Wextra",
            "-pedantic",
            "-I",
            "inc/tile_implementation",
            "-I",
            "inc/tile_implementation/battle_actions",
            "-I",
            "inc/tile_implementation/usage_functions",
            "-I",
            "inc/tile_implementation/passive_bonuses",
            "-I",
            "inc/tile_implementation/innate_functions",
            "-I",
            "inc/player_implementation",
            "-I",
            "inc/player_implementation/player_logic",
            "-I",
            "inc/game_flow",
            "-I",
            "inc/game_flow/game_states",
            "-I",
            "inc/guis",
            "-I",
            "inc/monte_carlo_trees",
            "-I",
            "inc/tests",
            "-I",
            "inc/utils",
            "-I",
            "inc/army_builders",
            "-I",
            "inc",
            "-I",
            "/usr/local/include",
            "-Wno-unused-parameter",
            "-g",
            "-fdiagnostics-color",
            "-O0",
            "-o",
            "obj/tile_implementation/usage_functions/BattleInstant.o",
            "src/tile_implementation/usage_functions/BattleInstant.cpp"
        ],
        "directory": "/home/brzegorz/Projects/neuro-ai",
        "file": "src/tile_implementation/usage_functions/BattleInstant.cpp"
    },
    {
        "arguments": [
            "clang++",
            "-c",
            "-std=c++17",
            "-Wall",
            "-Wextra",
            "-pedantic",
            "-I",
            "inc/tile_implementation",
            "-I",
            "inc/tile_implementation/battle_actions",
            "-I",
            "inc/tile_implementation/usage_functions",
            "-I",
            "inc/tile_implementation/passive_bonuses",
            "-I",
            "inc/tile_implementation/innate_functions",
            "-I",
            "inc/player_implementation",
            "-I",
            "inc/player_implementation/player_logic",
            "-I",
            "inc/game_flow",
            "-I",
            "inc/game_flow/game_states",
            "-I",
            "inc/guis",
            "-I",
            "inc/monte_carlo_trees",
            "-I",
            "inc/tests",
            "-I",
            "inc/utils",
            "-I",
            "inc/army_builders",
            "-I",
            "inc",
            "-I",
            "/usr/local/include",
            "-Wno-unused-parameter",
            "-g",
            "-fdiagnostics-color",
            "-O0",
            "-o",
            "obj/player_implementation/Army.o",
            "src/player_implementation/Army.cpp"
        ],
        "directory": "/home/brzegorz/Projects/neuro-ai",
        "file": "src/player_implementation/Army.cpp"
    },
    {
        "arguments": [
            "clang++",
            "-c",
            "-std=c++17",
            "-Wall",
            "-Wextra",
            "-pedantic",
            "-I",
            "inc/tile_implementation",
            "-I",
            "inc/tile_implementation/battle_actions",
            "-I",
            "inc/tile_implementation/usage_functions",
            "-I",
            "inc/tile_implementation/passive_bonuses",
            "-I",
            "inc/tile_implementation/innate_functions",
            "-I",
            "inc/player_implementation",
            "-I",
            "inc/player_implementation/player_logic",
            "-I",
            "inc/game_flow",
            "-I",
            "inc/game_flow/game_states",
            "-I",
            "inc/guis",
            "-I",
            "inc/monte_carlo_trees",
            "-I",
            "inc/tests",
            "-I",
            "inc/utils",
            "-I",
            "inc/army_builders",
            "-I",
            "inc",
            "-I",
            "/usr/local/include",
            "-Wno-unused-parameter",
            "-g",
            "-fdiagnostics-color",
            "-O0",
            "-o",
            "obj/game_flow/game_states/ObtainWhetherToUseInnates.o",
            "src/game_flow/game_states/ObtainWhetherToUseInnates.cpp"
        ],
        "directory": "/home/brzegorz/Projects/neuro-ai",
        "file": "src/game_flow/game_states/ObtainWhetherToUseInnates.cpp"
    },
    {
        "arguments": [
            "clang++",
            "-c",
            "-std=c++17",
            "-Wall",
            "-Wextra",
            "-pedantic",
            "-I",
            "inc/tile_implementation",
            "-I",
            "inc/tile_implementation/battle_actions",
            "-I",
            "inc/tile_implementation/usage_functions",
            "-I",
            "inc/tile_implementation/passive_bonuses",
            "-I",
            "inc/tile_implementation/innate_functions",
            "-I",
            "inc/player_implementation",
            "-I",
            "inc/player_implementation/player_logic",
            "-I",
            "inc/game_flow",
            "-I",
            "inc/game_flow/game_states",
            "-I",
            "inc/guis",
            "-I",
            "inc/monte_carlo_trees",
            "-I",
            "inc/tests",
            "-I",
            "inc/utils",
            "-I",
            "inc/army_builders",
            "-I",
            "inc",
            "-I",
            "/usr/local/include",
            "-Wno-unused-parameter",
            "-g",
            "-fdiagnostics-color",
            "-O0",
            "-o",
            "obj/tile_implementation/Tile.o",
            "src/tile_implementation/Tile.cpp"
        ],
        "directory": "/home/brzegorz/Projects/neuro-ai",
        "file": "src/tile_implementation/Tile.cpp"
    },
    {
        "arguments": [
            "clang++",
            "-c",
            "-std=c++17",
            "-Wall",
            "-Wextra",
            "-pedantic",
            "-I",
            "inc/tile_implementation",
            "-I",
            "inc/tile_implementation/battle_actions",
            "-I",
            "inc/tile_implementation/usage_functions",
            "-I",
            "inc/tile_implementation/passive_bonuses",
            "-I",
            "inc/tile_implementation/innate_functions",
            "-I",
            "inc/player_implementation",
            "-I",
            "inc/player_implementation/player_logic",
            "-I",
            "inc/game_flow",
            "-I",
            "inc/game_flow/game_states",
            "-I",
            "inc/guis",
            "-I",
            "inc/monte_carlo_trees",
            "-I",
            "inc/tests",
            "-I",
            "inc/utils",
            "-I",
            "inc/army_builders",
            "-I",
            "inc",
            "-I",
            "/usr/local/include",
            "-Wno-unused-parameter",
            "-g",
            "-fdiagnostics-color",
            "-O0",
            "-o",
            "obj/game_flow/PlayerDecisionManager.o",
            "src/game_flow/PlayerDecisionManager.cpp"
        ],
        "directory": "/home/brzegorz/Projects/neuro-ai",
        "file": "src/game_flow/PlayerDecisionManager.cpp"
    },
    {
        "arguments": [
            "clang++",
            "-c",
            "-std=c++17",
            "-Wall",
            "-Wextra",
            "-pedantic",
            "-I",
            "inc/tile_implementation",
            "-I",
            "inc/tile_implementation/battle_actions",
            "-I",
            "inc/tile_implementation/usage_functions",
            "-I",
            "inc/tile_implementation/passive_bonuses",
            "-I",
            "inc/tile_implementation/innate_functions",
            "-I",
            "inc/player_implementation",
            "-I",
            "inc/player_implementation/player_logic",
            "-I",
            "inc/game_flow",
            "-I",
            "inc/game_flow/game_states",
            "-I",
            "inc/guis",
            "-I",
            "inc/monte_carlo_trees",
            "-I",
            "inc/tests",
            "-I",
            "inc/utils",
            "-I",
            "inc/army_builders",
            "-I",
            "inc",
            "-I",
            "/usr/local/include",
            "-Wno-unused-parameter",
            "-g",
            "-fdiagnostics-color",
            "-O0",
            "-o",
            "obj/tile_implementation/usage_functions/UsageFunction.o",
            "src/tile_implementation/usage_functions/UsageFunction.cpp"
        ],
        "directory": "/home/brzegorz/Projects/neuro-ai",
        "file": "src/tile_implementation/usage_functions/UsageFunction.cpp"
    },
    {
        "arguments": [
            "clang++",
            "-c",
            "-std=c++17",
            "-Wall",
            "-Wextra",
            "-pedantic",
            "-I",
            "inc/tile_implementation",
            "-I",
            "inc/tile_implementation/battle_actions",
            "-I",
            "inc/tile_implementation/usage_functions",
            "-I",
            "inc/tile_implementation/passive_bonuses",
            "-I",
            "inc/tile_implementation/innate_functions",
            "-I",
            "inc/player_implementation",
            "-I",
            "inc/player_implementation/player_logic",
            "-I",
            "inc/game_flow",
            "-I",
            "inc/game_flow/game_states",
            "-I",
            "inc/guis",
            "-I",
            "inc/monte_carlo_trees",
            "-I",
            "inc/tests",
            "-I",
            "inc/utils",
            "-I",
            "inc/army_builders",
            "-I",
            "inc",
            "-I",
            "/usr/local/include",
            "-Wno-unused-parameter",
            "-g",
            "-fdiagnostics-color",
            "-O0",
            "-o",
            "obj/game_flow/PlayerDecision.o",
            "src/game_flow/PlayerDecision.cpp"
        ],
        "directory": "/home/brzegorz/Projects/neuro-ai",
        "file": "src/game_flow/PlayerDecision.cpp"
    },
    {
        "arguments": [
            "clang++",
            "-c",
            "-std=c++17",
            "-Wall",
            "-Wextra",
            "-pedantic",
            "-I",
            "inc/tile_implementation",
            "-I",
            "inc/tile_implementation/battle_actions",
            "-I",
            "inc/tile_implementation/usage_functions",
            "-I",
            "inc/tile_implementation/passive_bonuses",
            "-I",
            "inc/tile_implementation/innate_functions",
            "-I",
            "inc/player_implementation",
            "-I",
            "inc/player_implementation/player_logic",
            "-I",
            "inc/game_flow",
            "-I",
            "inc/game_flow/game_states",
            "-I",
            "inc/guis",
            "-I",
            "inc/monte_carlo_trees",
            "-I",
            "inc/tests",
            "-I",
            "inc/utils",
            "-I",
            "inc/army_builders",
            "-I",
            "inc",
            "-I",
            "/usr/local/include",
            "-Wno-unused-parameter",
            "-g",
            "-fdiagnostics-color",
            "-O0",
            "-o",
            "obj/army_builders/OutpostBuilder.o",
            "src/army_builders/OutpostBuilder.cpp"
        ],
        "directory": "/home/brzegorz/Projects/neuro-ai",
        "file": "src/army_builders/OutpostBuilder.cpp"
    },
    {
        "arguments": [
            "clang++",
            "-c",
            "-std=c++17",
            "-Wall",
            "-Wextra",
            "-pedantic",
            "-I",
            "inc/tile_implementation",
            "-I",
            "inc/tile_implementation/battle_actions",
            "-I",
            "inc/tile_implementation/usage_functions",
            "-I",
            "inc/tile_implementation/passive_bonuses",
            "-I",
            "inc/tile_implementation/innate_functions",
            "-I",
            "inc/player_implementation",
            "-I",
            "inc/player_implementation/player_logic",
            "-I",
            "inc/game_flow",
            "-I",
            "inc/game_flow/game_states",
            "-I",
            "inc/guis",
            "-I",
            "inc/monte_carlo_trees",
            "-I",
            "inc/tests",
            "-I",
            "inc/utils",
            "-I",
            "inc/army_builders",
            "-I",
            "inc",
            "-I",
            "/usr/local/include",
            "-Wno-unused-parameter",
            "-g",
            "-fdiagnostics-color",
            "-O0",
            "-o",
            "obj/player_implementation/Player.o",
            "src/player_implementation/Player.cpp"
        ],
        "directory": "/home/brzegorz/Projects/neuro-ai",
        "file": "src/player_implementation/Player.cpp"
    }
]